[2022-08-26 08:16:34] main.CRITICAL: The element "footer-container" can't have a child because "footer-container" already has a child with alias "footer". {"exception":"[object] (Magento\\Framework\\Exception\\LocalizedException(code: 0): The element \"footer-container\" can't have a child because \"footer-container\" already has a child with alias \"footer\". at /var/www/html/test_magento/vendor/magento/framework/Data/Structure.php:625)"} []
[2022-08-26 08:16:47] main.CRITICAL: The element "footer-container" can't have a child because "footer-container" already has a child with alias "footer". {"exception":"[object] (Magento\\Framework\\Exception\\LocalizedException(code: 0): The element \"footer-container\" can't have a child because \"footer-container\" already has a child with alias \"footer\". at /var/www/html/test_magento/vendor/magento/framework/Data/Structure.php:625)"} []
[2022-08-26 08:16:49] main.CRITICAL: The element "footer-container" can't have a child because "footer-container" already has a child with alias "footer". {"exception":"[object] (Magento\\Framework\\Exception\\LocalizedException(code: 0): The element \"footer-container\" can't have a child because \"footer-container\" already has a child with alias \"footer\". at /var/www/html/test_magento/vendor/magento/framework/Data/Structure.php:625)"} []
[2022-08-26 08:16:50] main.CRITICAL: The element "footer-container" can't have a child because "footer-container" already has a child with alias "footer". {"exception":"[object] (Magento\\Framework\\Exception\\LocalizedException(code: 0): The element \"footer-container\" can't have a child because \"footer-container\" already has a child with alias \"footer\". at /var/www/html/test_magento/vendor/magento/framework/Data/Structure.php:625)"} []
[2022-08-26 08:16:51] main.CRITICAL: The element "footer-container" can't have a child because "footer-container" already has a child with alias "footer". {"exception":"[object] (Magento\\Framework\\Exception\\LocalizedException(code: 0): The element \"footer-container\" can't have a child because \"footer-container\" already has a child with alias \"footer\". at /var/www/html/test_magento/vendor/magento/framework/Data/Structure.php:625)"} []
[2022-08-26 08:16:51] main.CRITICAL: The element "footer-container" can't have a child because "footer-container" already has a child with alias "footer". {"exception":"[object] (Magento\\Framework\\Exception\\LocalizedException(code: 0): The element \"footer-container\" can't have a child because \"footer-container\" already has a child with alias \"footer\". at /var/www/html/test_magento/vendor/magento/framework/Data/Structure.php:625)"} []
[2022-08-26 08:16:52] main.CRITICAL: The element "footer-container" can't have a child because "footer-container" already has a child with alias "footer". {"exception":"[object] (Magento\\Framework\\Exception\\LocalizedException(code: 0): The element \"footer-container\" can't have a child because \"footer-container\" already has a child with alias \"footer\". at /var/www/html/test_magento/vendor/magento/framework/Data/Structure.php:625)"} []
[2022-08-26 08:19:29] main.CRITICAL: The element "footer-container" can't have a child because "footer-container" already has a child with alias "footer". {"exception":"[object] (Magento\\Framework\\Exception\\LocalizedException(code: 0): The element \"footer-container\" can't have a child because \"footer-container\" already has a child with alias \"footer\". at /var/www/html/test_magento/vendor/magento/framework/Data/Structure.php:625)"} []
[2022-08-26 08:20:27] main.CRITICAL: The element "footer-container" can't have a child because "footer-container" already has a child with alias "footer". {"exception":"[object] (Magento\\Framework\\Exception\\LocalizedException(code: 0): The element \"footer-container\" can't have a child because \"footer-container\" already has a child with alias \"footer\". at /var/www/html/test_magento/vendor/magento/framework/Data/Structure.php:625)"} []
[2022-08-26 08:22:28] main.CRITICAL: The element "footer-container" can't have a child because "footer-container" already has a child with alias "footer". {"exception":"[object] (Magento\\Framework\\Exception\\LocalizedException(code: 0): The element \"footer-container\" can't have a child because \"footer-container\" already has a child with alias \"footer\". at /var/www/html/test_magento/vendor/magento/framework/Data/Structure.php:625)"} []
[2022-08-26 08:23:55] main.CRITICAL: The element "footer-container" can't have a child because "footer-container" already has a child with alias "footer". {"exception":"[object] (Magento\\Framework\\Exception\\LocalizedException(code: 0): The element \"footer-container\" can't have a child because \"footer-container\" already has a child with alias \"footer\". at /var/www/html/test_magento/vendor/magento/framework/Data/Structure.php:625)"} []
[2022-08-26 08:23:56] main.CRITICAL: The element "footer-container" can't have a child because "footer-container" already has a child with alias "footer". {"exception":"[object] (Magento\\Framework\\Exception\\LocalizedException(code: 0): The element \"footer-container\" can't have a child because \"footer-container\" already has a child with alias \"footer\". at /var/www/html/test_magento/vendor/magento/framework/Data/Structure.php:625)"} []
[2022-08-26 08:43:01] main.CRITICAL: The element "footer-container" can't have a child because "footer-container" already has a child with alias "footer". {"exception":"[object] (Magento\\Framework\\Exception\\LocalizedException(code: 0): The element \"footer-container\" can't have a child because \"footer-container\" already has a child with alias \"footer\". at /var/www/html/test_magento/vendor/magento/framework/Data/Structure.php:625)"} []
[2022-08-26 08:43:04] main.CRITICAL: The element "footer-container" can't have a child because "footer-container" already has a child with alias "footer". {"exception":"[object] (Magento\\Framework\\Exception\\LocalizedException(code: 0): The element \"footer-container\" can't have a child because \"footer-container\" already has a child with alias \"footer\". at /var/www/html/test_magento/vendor/magento/framework/Data/Structure.php:625)"} []
[2022-08-26 08:43:05] main.CRITICAL: The element "footer-container" can't have a child because "footer-container" already has a child with alias "footer". {"exception":"[object] (Magento\\Framework\\Exception\\LocalizedException(code: 0): The element \"footer-container\" can't have a child because \"footer-container\" already has a child with alias \"footer\". at /var/www/html/test_magento/vendor/magento/framework/Data/Structure.php:625)"} []
[2022-08-26 08:44:29] main.CRITICAL: The element "footer-container" can't have a child because "footer-container" already has a child with alias "footer". {"exception":"[object] (Magento\\Framework\\Exception\\LocalizedException(code: 0): The element \"footer-container\" can't have a child because \"footer-container\" already has a child with alias \"footer\". at /var/www/html/test_magento/vendor/magento/framework/Data/Structure.php:625)"} []
[2022-08-26 08:44:33] main.CRITICAL: The element "footer-container" can't have a child because "footer-container" already has a child with alias "footer". {"exception":"[object] (Magento\\Framework\\Exception\\LocalizedException(code: 0): The element \"footer-container\" can't have a child because \"footer-container\" already has a child with alias \"footer\". at /var/www/html/test_magento/vendor/magento/framework/Data/Structure.php:625)"} []
[2022-08-26 08:44:34] main.CRITICAL: The element "footer-container" can't have a child because "footer-container" already has a child with alias "footer". {"exception":"[object] (Magento\\Framework\\Exception\\LocalizedException(code: 0): The element \"footer-container\" can't have a child because \"footer-container\" already has a child with alias \"footer\". at /var/www/html/test_magento/vendor/magento/framework/Data/Structure.php:625)"} []
[2022-08-26 08:44:35] main.CRITICAL: The element "footer-container" can't have a child because "footer-container" already has a child with alias "footer". {"exception":"[object] (Magento\\Framework\\Exception\\LocalizedException(code: 0): The element \"footer-container\" can't have a child because \"footer-container\" already has a child with alias \"footer\". at /var/www/html/test_magento/vendor/magento/framework/Data/Structure.php:625)"} []
[2022-08-26 08:44:35] main.CRITICAL: The element "footer-container" can't have a child because "footer-container" already has a child with alias "footer". {"exception":"[object] (Magento\\Framework\\Exception\\LocalizedException(code: 0): The element \"footer-container\" can't have a child because \"footer-container\" already has a child with alias \"footer\". at /var/www/html/test_magento/vendor/magento/framework/Data/Structure.php:625)"} []
[2022-08-26 08:44:36] main.CRITICAL: The element "footer-container" can't have a child because "footer-container" already has a child with alias "footer". {"exception":"[object] (Magento\\Framework\\Exception\\LocalizedException(code: 0): The element \"footer-container\" can't have a child because \"footer-container\" already has a child with alias \"footer\". at /var/www/html/test_magento/vendor/magento/framework/Data/Structure.php:625)"} []
[2022-08-26 08:44:40] main.CRITICAL: The element "footer-container" can't have a child because "footer-container" already has a child with alias "footer". {"exception":"[object] (Magento\\Framework\\Exception\\LocalizedException(code: 0): The element \"footer-container\" can't have a child because \"footer-container\" already has a child with alias \"footer\". at /var/www/html/test_magento/vendor/magento/framework/Data/Structure.php:625)"} []
[2022-08-26 08:44:41] main.CRITICAL: The element "footer-container" can't have a child because "footer-container" already has a child with alias "footer". {"exception":"[object] (Magento\\Framework\\Exception\\LocalizedException(code: 0): The element \"footer-container\" can't have a child because \"footer-container\" already has a child with alias \"footer\". at /var/www/html/test_magento/vendor/magento/framework/Data/Structure.php:625)"} []
[2022-08-26 08:45:50] main.CRITICAL: The element "footer-container" can't have a child because "footer-container" already has a child with alias "footer". {"exception":"[object] (Magento\\Framework\\Exception\\LocalizedException(code: 0): The element \"footer-container\" can't have a child because \"footer-container\" already has a child with alias \"footer\". at /var/www/html/test_magento/vendor/magento/framework/Data/Structure.php:625)"} []
